<mxfile host="Electron" modified="2023-04-12T07:37:37.058Z" agent="Mozilla/5.0 (X11; Linux x86_64) AppleWebKit/537.36 (KHTML, like Gecko) draw.io/21.1.2 Chrome/106.0.5249.199 Electron/21.4.3 Safari/537.36" etag="ZAPockfEXvb3hFT8AKwF" version="21.1.2" type="device">
  <diagram name="Page-1" id="ViY0RV-AfVqPKyweN0x6">
    <mxGraphModel dx="1009" dy="496" grid="1" gridSize="10" guides="1" tooltips="1" connect="1" arrows="1" fold="1" page="1" pageScale="1" pageWidth="827" pageHeight="1169" math="0" shadow="0">
      <root>
        <mxCell id="0" />
        <mxCell id="1" parent="0" />
        <mxCell id="Qw_KiCDUz0p5RvP5QLY6-18" style="edgeStyle=orthogonalEdgeStyle;rounded=0;orthogonalLoop=1;jettySize=auto;html=1;exitX=1;exitY=0.5;exitDx=0;exitDy=0;entryX=0;entryY=0.5;entryDx=0;entryDy=0;" edge="1" parent="1" source="Qw_KiCDUz0p5RvP5QLY6-17" target="Qw_KiCDUz0p5RvP5QLY6-16">
          <mxGeometry relative="1" as="geometry" />
        </mxCell>
        <mxCell id="Qw_KiCDUz0p5RvP5QLY6-17" value="" style="rounded=0;whiteSpace=wrap;html=1;" vertex="1" parent="1">
          <mxGeometry x="5" y="650" width="265" height="180" as="geometry" />
        </mxCell>
        <mxCell id="Qw_KiCDUz0p5RvP5QLY6-1" value="User" style="rounded=0;whiteSpace=wrap;html=1;verticalAlign=top;" vertex="1" parent="1">
          <mxGeometry x="520" y="620" width="650" height="240" as="geometry" />
        </mxCell>
        <mxCell id="Qw_KiCDUz0p5RvP5QLY6-2" value="Phone" style="rounded=0;whiteSpace=wrap;html=1;verticalAlign=top;" vertex="1" parent="1">
          <mxGeometry x="1340" y="620" width="450" height="240" as="geometry" />
        </mxCell>
        <mxCell id="Qw_KiCDUz0p5RvP5QLY6-3" value="usetanle" style="rounded=1;whiteSpace=wrap;html=1;" vertex="1" parent="1">
          <mxGeometry x="270" y="420" width="120" height="60" as="geometry" />
        </mxCell>
        <mxCell id="Qw_KiCDUz0p5RvP5QLY6-9" style="edgeStyle=orthogonalEdgeStyle;rounded=0;orthogonalLoop=1;jettySize=auto;html=1;exitX=0;exitY=0.5;exitDx=0;exitDy=0;" edge="1" parent="1" source="Qw_KiCDUz0p5RvP5QLY6-4" target="Qw_KiCDUz0p5RvP5QLY6-3">
          <mxGeometry relative="1" as="geometry" />
        </mxCell>
        <mxCell id="Qw_KiCDUz0p5RvP5QLY6-4" value="org" style="rounded=1;whiteSpace=wrap;html=1;" vertex="1" parent="1">
          <mxGeometry x="450" y="420" width="120" height="60" as="geometry" />
        </mxCell>
        <mxCell id="Qw_KiCDUz0p5RvP5QLY6-7" style="edgeStyle=orthogonalEdgeStyle;rounded=0;orthogonalLoop=1;jettySize=auto;html=1;exitX=0.5;exitY=0;exitDx=0;exitDy=0;entryX=0.5;entryY=1;entryDx=0;entryDy=0;" edge="1" parent="1" source="Qw_KiCDUz0p5RvP5QLY6-5" target="Qw_KiCDUz0p5RvP5QLY6-3">
          <mxGeometry relative="1" as="geometry" />
        </mxCell>
        <mxCell id="Qw_KiCDUz0p5RvP5QLY6-5" value="phones" style="rounded=1;whiteSpace=wrap;html=1;" vertex="1" parent="1">
          <mxGeometry x="210" y="540" width="120" height="60" as="geometry" />
        </mxCell>
        <mxCell id="Qw_KiCDUz0p5RvP5QLY6-8" style="edgeStyle=orthogonalEdgeStyle;rounded=0;orthogonalLoop=1;jettySize=auto;html=1;exitX=0.5;exitY=0;exitDx=0;exitDy=0;entryX=0.551;entryY=1.053;entryDx=0;entryDy=0;entryPerimeter=0;" edge="1" parent="1" source="Qw_KiCDUz0p5RvP5QLY6-6" target="Qw_KiCDUz0p5RvP5QLY6-4">
          <mxGeometry relative="1" as="geometry" />
        </mxCell>
        <mxCell id="Qw_KiCDUz0p5RvP5QLY6-6" value="adr" style="rounded=1;whiteSpace=wrap;html=1;" vertex="1" parent="1">
          <mxGeometry x="490" y="540" width="120" height="60" as="geometry" />
        </mxCell>
        <mxCell id="Qw_KiCDUz0p5RvP5QLY6-10" value="UserTable" style="rounded=0;whiteSpace=wrap;html=1;" vertex="1" parent="1">
          <mxGeometry x="50" y="680" width="120" height="60" as="geometry" />
        </mxCell>
        <mxCell id="Qw_KiCDUz0p5RvP5QLY6-11" value="UserTable" style="rounded=0;whiteSpace=wrap;html=1;" vertex="1" parent="1">
          <mxGeometry x="60" y="690" width="120" height="60" as="geometry" />
        </mxCell>
        <mxCell id="Qw_KiCDUz0p5RvP5QLY6-12" value="UserTable" style="rounded=0;whiteSpace=wrap;html=1;" vertex="1" parent="1">
          <mxGeometry x="70" y="700" width="120" height="60" as="geometry" />
        </mxCell>
        <mxCell id="Qw_KiCDUz0p5RvP5QLY6-13" value="UserTable" style="rounded=0;whiteSpace=wrap;html=1;" vertex="1" parent="1">
          <mxGeometry x="80" y="710" width="120" height="60" as="geometry" />
        </mxCell>
        <mxCell id="Qw_KiCDUz0p5RvP5QLY6-14" value="UserTable" style="rounded=0;whiteSpace=wrap;html=1;" vertex="1" parent="1">
          <mxGeometry x="90" y="720" width="120" height="60" as="geometry" />
        </mxCell>
        <mxCell id="Qw_KiCDUz0p5RvP5QLY6-15" value="UserTable" style="rounded=0;whiteSpace=wrap;html=1;" vertex="1" parent="1">
          <mxGeometry x="100" y="730" width="120" height="60" as="geometry" />
        </mxCell>
        <mxCell id="Qw_KiCDUz0p5RvP5QLY6-20" style="edgeStyle=orthogonalEdgeStyle;rounded=0;orthogonalLoop=1;jettySize=auto;html=1;exitX=1;exitY=0.5;exitDx=0;exitDy=0;" edge="1" parent="1" source="Qw_KiCDUz0p5RvP5QLY6-16" target="Qw_KiCDUz0p5RvP5QLY6-19">
          <mxGeometry relative="1" as="geometry" />
        </mxCell>
        <mxCell id="Qw_KiCDUz0p5RvP5QLY6-16" value="RabbitMQ" style="shape=parallelogram;perimeter=parallelogramPerimeter;whiteSpace=wrap;html=1;fixedSize=1;" vertex="1" parent="1">
          <mxGeometry x="330" y="710" width="120" height="60" as="geometry" />
        </mxCell>
        <mxCell id="Qw_KiCDUz0p5RvP5QLY6-22" style="edgeStyle=orthogonalEdgeStyle;rounded=0;orthogonalLoop=1;jettySize=auto;html=1;exitX=0.5;exitY=0;exitDx=0;exitDy=0;entryX=0;entryY=0.5;entryDx=0;entryDy=0;" edge="1" parent="1" source="Qw_KiCDUz0p5RvP5QLY6-19" target="Qw_KiCDUz0p5RvP5QLY6-21">
          <mxGeometry relative="1" as="geometry" />
        </mxCell>
        <mxCell id="Qw_KiCDUz0p5RvP5QLY6-24" style="edgeStyle=orthogonalEdgeStyle;rounded=0;orthogonalLoop=1;jettySize=auto;html=1;exitX=0.5;exitY=1;exitDx=0;exitDy=0;entryX=0;entryY=0.5;entryDx=0;entryDy=0;" edge="1" parent="1" source="Qw_KiCDUz0p5RvP5QLY6-19" target="Qw_KiCDUz0p5RvP5QLY6-23">
          <mxGeometry relative="1" as="geometry" />
        </mxCell>
        <mxCell id="Qw_KiCDUz0p5RvP5QLY6-19" value="Spring Integration&lt;br&gt;AQMP" style="rounded=0;whiteSpace=wrap;html=1;" vertex="1" parent="1">
          <mxGeometry x="550" y="710" width="120" height="60" as="geometry" />
        </mxCell>
        <mxCell id="Qw_KiCDUz0p5RvP5QLY6-21" value="Error Channel" style="rounded=0;whiteSpace=wrap;html=1;" vertex="1" parent="1">
          <mxGeometry x="640" y="660" width="120" height="40" as="geometry" />
        </mxCell>
        <mxCell id="Qw_KiCDUz0p5RvP5QLY6-30" style="edgeStyle=orthogonalEdgeStyle;rounded=0;orthogonalLoop=1;jettySize=auto;html=1;exitX=1;exitY=0.5;exitDx=0;exitDy=0;entryX=0.5;entryY=1;entryDx=0;entryDy=0;" edge="1" parent="1" source="Qw_KiCDUz0p5RvP5QLY6-23" target="Qw_KiCDUz0p5RvP5QLY6-29">
          <mxGeometry relative="1" as="geometry" />
        </mxCell>
        <mxCell id="Qw_KiCDUz0p5RvP5QLY6-40" value="UserCreatedEvent" style="edgeLabel;html=1;align=center;verticalAlign=middle;resizable=0;points=[];" vertex="1" connectable="0" parent="Qw_KiCDUz0p5RvP5QLY6-30">
          <mxGeometry x="0.1095" y="-1" relative="1" as="geometry">
            <mxPoint as="offset" />
          </mxGeometry>
        </mxCell>
        <mxCell id="Qw_KiCDUz0p5RvP5QLY6-32" value="UserTable with Phones" style="edgeStyle=orthogonalEdgeStyle;rounded=0;orthogonalLoop=1;jettySize=auto;html=1;exitX=0.5;exitY=1;exitDx=0;exitDy=0;" edge="1" parent="1" source="Qw_KiCDUz0p5RvP5QLY6-23" target="Qw_KiCDUz0p5RvP5QLY6-31">
          <mxGeometry relative="1" as="geometry" />
        </mxCell>
        <mxCell id="Qw_KiCDUz0p5RvP5QLY6-23" value="Service java" style="rounded=0;whiteSpace=wrap;html=1;" vertex="1" parent="1">
          <mxGeometry x="620" y="790" width="120" height="40" as="geometry" />
        </mxCell>
        <mxCell id="Qw_KiCDUz0p5RvP5QLY6-25" value="Kafka" style="rounded=0;whiteSpace=wrap;html=1;verticalAlign=top;" vertex="1" parent="1">
          <mxGeometry x="700" y="985" width="300" height="135" as="geometry" />
        </mxCell>
        <mxCell id="Qw_KiCDUz0p5RvP5QLY6-37" value="&lt;span style=&quot;color: rgb(0, 0, 0); font-family: Helvetica; font-size: 11px; font-style: normal; font-variant-ligatures: normal; font-variant-caps: normal; font-weight: 400; letter-spacing: normal; orphans: 2; text-align: center; text-indent: 0px; text-transform: none; widows: 2; word-spacing: 0px; -webkit-text-stroke-width: 0px; background-color: rgb(255, 255, 255); text-decoration-thickness: initial; text-decoration-style: initial; text-decoration-color: initial; float: none; display: inline !important;&quot;&gt;UserCreatedEvent&lt;/span&gt;" style="edgeStyle=orthogonalEdgeStyle;rounded=0;orthogonalLoop=1;jettySize=auto;html=1;exitX=0.75;exitY=0;exitDx=0;exitDy=0;entryX=0.75;entryY=1;entryDx=0;entryDy=0;" edge="1" parent="1" source="Qw_KiCDUz0p5RvP5QLY6-27" target="Qw_KiCDUz0p5RvP5QLY6-34">
          <mxGeometry relative="1" as="geometry">
            <Array as="points">
              <mxPoint x="775" y="910" />
              <mxPoint x="940" y="910" />
            </Array>
          </mxGeometry>
        </mxCell>
        <mxCell id="Qw_KiCDUz0p5RvP5QLY6-39" value="&lt;span style=&quot;color: rgb(0, 0, 0); font-family: Helvetica; font-size: 11px; font-style: normal; font-variant-ligatures: normal; font-variant-caps: normal; font-weight: 400; letter-spacing: normal; orphans: 2; text-align: center; text-indent: 0px; text-transform: none; widows: 2; word-spacing: 0px; -webkit-text-stroke-width: 0px; background-color: rgb(255, 255, 255); text-decoration-thickness: initial; text-decoration-style: initial; text-decoration-color: initial; float: none; display: inline !important;&quot;&gt;UserCreatedEvent&lt;/span&gt;" style="edgeStyle=orthogonalEdgeStyle;rounded=0;orthogonalLoop=1;jettySize=auto;html=1;exitX=1;exitY=0.25;exitDx=0;exitDy=0;" edge="1" parent="1" source="Qw_KiCDUz0p5RvP5QLY6-27" target="Qw_KiCDUz0p5RvP5QLY6-28">
          <mxGeometry relative="1" as="geometry" />
        </mxCell>
        <mxCell id="Qw_KiCDUz0p5RvP5QLY6-27" value="Topic100" style="rounded=1;whiteSpace=wrap;html=1;" vertex="1" parent="1">
          <mxGeometry x="707" y="1040" width="90" height="40" as="geometry" />
        </mxCell>
        <mxCell id="Qw_KiCDUz0p5RvP5QLY6-42" style="edgeStyle=orthogonalEdgeStyle;rounded=0;orthogonalLoop=1;jettySize=auto;html=1;exitX=1;exitY=0.5;exitDx=0;exitDy=0;" edge="1" parent="1" source="Qw_KiCDUz0p5RvP5QLY6-28" target="Qw_KiCDUz0p5RvP5QLY6-41">
          <mxGeometry relative="1" as="geometry" />
        </mxCell>
        <mxCell id="Qw_KiCDUz0p5RvP5QLY6-28" value="Spring Integration&lt;br&gt;Kafka" style="rounded=0;whiteSpace=wrap;html=1;" vertex="1" parent="1">
          <mxGeometry x="1370" y="660" width="120" height="60" as="geometry" />
        </mxCell>
        <mxCell id="Qw_KiCDUz0p5RvP5QLY6-35" style="edgeStyle=orthogonalEdgeStyle;rounded=0;orthogonalLoop=1;jettySize=auto;html=1;exitX=1;exitY=0.5;exitDx=0;exitDy=0;" edge="1" parent="1" source="Qw_KiCDUz0p5RvP5QLY6-29" target="Qw_KiCDUz0p5RvP5QLY6-34">
          <mxGeometry relative="1" as="geometry" />
        </mxCell>
        <mxCell id="Qw_KiCDUz0p5RvP5QLY6-29" value="Event" style="rounded=0;whiteSpace=wrap;html=1;" vertex="1" parent="1">
          <mxGeometry x="707" y="710" width="120" height="60" as="geometry" />
        </mxCell>
        <mxCell id="Qw_KiCDUz0p5RvP5QLY6-31" value="Postgres" style="rounded=0;whiteSpace=wrap;html=1;verticalAlign=top;" vertex="1" parent="1">
          <mxGeometry x="1241" y="1050" width="170" height="90" as="geometry" />
        </mxCell>
        <mxCell id="Qw_KiCDUz0p5RvP5QLY6-36" value="&lt;span style=&quot;color: rgb(0, 0, 0); font-family: Helvetica; font-size: 11px; font-style: normal; font-variant-ligatures: normal; font-variant-caps: normal; font-weight: 400; letter-spacing: normal; orphans: 2; text-align: center; text-indent: 0px; text-transform: none; widows: 2; word-spacing: 0px; -webkit-text-stroke-width: 0px; background-color: rgb(255, 255, 255); text-decoration-thickness: initial; text-decoration-style: initial; text-decoration-color: initial; float: none; display: inline !important;&quot;&gt;UserCreatedEvent&lt;/span&gt;" style="edgeStyle=orthogonalEdgeStyle;rounded=0;orthogonalLoop=1;jettySize=auto;html=1;exitX=0.5;exitY=1;exitDx=0;exitDy=0;" edge="1" parent="1" source="Qw_KiCDUz0p5RvP5QLY6-34" target="Qw_KiCDUz0p5RvP5QLY6-27">
          <mxGeometry relative="1" as="geometry">
            <Array as="points">
              <mxPoint x="860" y="770" />
              <mxPoint x="860" y="890" />
              <mxPoint x="752" y="890" />
            </Array>
          </mxGeometry>
        </mxCell>
        <mxCell id="Qw_KiCDUz0p5RvP5QLY6-34" value="Spring Integration&lt;br&gt;Kafka" style="rounded=0;whiteSpace=wrap;html=1;" vertex="1" parent="1">
          <mxGeometry x="850" y="710" width="120" height="60" as="geometry" />
        </mxCell>
        <mxCell id="Qw_KiCDUz0p5RvP5QLY6-38" value="Topic99" style="rounded=1;whiteSpace=wrap;html=1;" vertex="1" parent="1">
          <mxGeometry x="880" y="1065" width="90" height="40" as="geometry" />
        </mxCell>
        <mxCell id="Qw_KiCDUz0p5RvP5QLY6-44" value="BlockPhoneEvent" style="edgeStyle=orthogonalEdgeStyle;rounded=0;orthogonalLoop=1;jettySize=auto;html=1;exitX=1;exitY=0.5;exitDx=0;exitDy=0;" edge="1" parent="1" source="Qw_KiCDUz0p5RvP5QLY6-41" target="Qw_KiCDUz0p5RvP5QLY6-43">
          <mxGeometry relative="1" as="geometry">
            <mxPoint as="offset" />
          </mxGeometry>
        </mxCell>
        <mxCell id="Qw_KiCDUz0p5RvP5QLY6-41" value="Service Java&lt;br&gt;Blocked phone" style="rounded=0;whiteSpace=wrap;html=1;" vertex="1" parent="1">
          <mxGeometry x="1480" y="750" width="120" height="60" as="geometry" />
        </mxCell>
        <mxCell id="Qw_KiCDUz0p5RvP5QLY6-47" value="&lt;span style=&quot;color: rgb(0, 0, 0); font-family: Helvetica; font-size: 11px; font-style: normal; font-variant-ligatures: normal; font-variant-caps: normal; font-weight: 400; letter-spacing: normal; orphans: 2; text-align: center; text-indent: 0px; text-transform: none; widows: 2; word-spacing: 0px; -webkit-text-stroke-width: 0px; background-color: rgb(255, 255, 255); text-decoration-thickness: initial; text-decoration-style: initial; text-decoration-color: initial; float: none; display: inline !important;&quot;&gt;PUT BlockPhoneEvent&lt;/span&gt;" style="edgeStyle=orthogonalEdgeStyle;rounded=0;orthogonalLoop=1;jettySize=auto;html=1;exitX=0.5;exitY=0;exitDx=0;exitDy=0;entryX=0.5;entryY=0;entryDx=0;entryDy=0;" edge="1" parent="1" source="Qw_KiCDUz0p5RvP5QLY6-43" target="Qw_KiCDUz0p5RvP5QLY6-46">
          <mxGeometry relative="1" as="geometry">
            <Array as="points">
              <mxPoint x="1410" y="580" />
              <mxPoint x="910" y="580" />
            </Array>
          </mxGeometry>
        </mxCell>
        <mxCell id="Qw_KiCDUz0p5RvP5QLY6-43" value="Spring Integration&lt;br style=&quot;border-color: var(--border-color);&quot;&gt;HTTP" style="rounded=0;whiteSpace=wrap;html=1;" vertex="1" parent="1">
          <mxGeometry x="1620" y="670" width="120" height="60" as="geometry" />
        </mxCell>
        <mxCell id="Qw_KiCDUz0p5RvP5QLY6-49" style="edgeStyle=orthogonalEdgeStyle;rounded=0;orthogonalLoop=1;jettySize=auto;html=1;exitX=1;exitY=0.5;exitDx=0;exitDy=0;" edge="1" parent="1" source="Qw_KiCDUz0p5RvP5QLY6-46" target="Qw_KiCDUz0p5RvP5QLY6-48">
          <mxGeometry relative="1" as="geometry" />
        </mxCell>
        <mxCell id="Qw_KiCDUz0p5RvP5QLY6-52" value="200 ok" style="edgeStyle=orthogonalEdgeStyle;rounded=0;orthogonalLoop=1;jettySize=auto;html=1;exitX=0.75;exitY=0;exitDx=0;exitDy=0;entryX=0.25;entryY=0;entryDx=0;entryDy=0;" edge="1" parent="1" source="Qw_KiCDUz0p5RvP5QLY6-46" target="Qw_KiCDUz0p5RvP5QLY6-43">
          <mxGeometry relative="1" as="geometry">
            <Array as="points">
              <mxPoint x="1020" y="610" />
              <mxPoint x="1650" y="610" />
            </Array>
          </mxGeometry>
        </mxCell>
        <mxCell id="Qw_KiCDUz0p5RvP5QLY6-46" value="Spring Integration&lt;br&gt;Http" style="rounded=0;whiteSpace=wrap;html=1;" vertex="1" parent="1">
          <mxGeometry x="930" y="640" width="120" height="60" as="geometry" />
        </mxCell>
        <mxCell id="Qw_KiCDUz0p5RvP5QLY6-50" style="edgeStyle=orthogonalEdgeStyle;rounded=0;orthogonalLoop=1;jettySize=auto;html=1;exitX=0.5;exitY=1;exitDx=0;exitDy=0;entryX=0;entryY=0.5;entryDx=0;entryDy=0;" edge="1" parent="1" source="Qw_KiCDUz0p5RvP5QLY6-48" target="Qw_KiCDUz0p5RvP5QLY6-31">
          <mxGeometry relative="1" as="geometry" />
        </mxCell>
        <mxCell id="Qw_KiCDUz0p5RvP5QLY6-51" value="Version (?)" style="edgeLabel;html=1;align=center;verticalAlign=middle;resizable=0;points=[];" vertex="1" connectable="0" parent="Qw_KiCDUz0p5RvP5QLY6-50">
          <mxGeometry x="-0.5372" y="1" relative="1" as="geometry">
            <mxPoint x="1" as="offset" />
          </mxGeometry>
        </mxCell>
        <mxCell id="Qw_KiCDUz0p5RvP5QLY6-48" value="Service java" style="rounded=0;whiteSpace=wrap;html=1;" vertex="1" parent="1">
          <mxGeometry x="1010" y="750" width="120" height="40" as="geometry" />
        </mxCell>
      </root>
    </mxGraphModel>
  </diagram>
</mxfile>
